<svg style="width:24px;height:24px" viewBox="0 0 24 24" xmlns="http://www.w3.org/2000/svg">
  <path fill="#000000" d="M7 3h10v2h2v3h-3v6H8V8H5V5h2V3m10 6h2v5h-2V9m-6 6h2v7h-2v-7M5 9h2v5H5V9z"/>
</svg>
