<svg style="width:24px;height:24px" viewBox="0 0 24 24" xmlns="http://www.w3.org/2000/svg">
  <path fill="#000000" d="M22 13.5c0 1.76-1.3 3.22-3 3.46V20a2 2 0 0 1-2 2h-3.8v-.3a2.7 2.7 0 0 0-2.7-2.7c-1.5 0-2.7 1.21-2.7 2.7v.3H4a2 2 0 0 1-2-2v-3.8h.3C3.79 16.2 5 15 5 13.5c0-1.5-1.21-2.7-2.7-2.7H2V7a2 2 0 0 1 2-2h3.04c.24-1.7 1.7-3 3.46-3s3.22 1.3 3.46 3H17a2 2 0 0 1 2 2v3.04c1.7.24 3 1.7 3 3.46M17 15h1.5a1.5 1.5 0 0 0 1.5-1.5 1.5 1.5 0 0 0-1.5-1.5H17V7h-5V5.5A1.5 1.5 0 0 0 10.5 4 1.5 1.5 0 0 0 9 5.5V7H4v2.12c1.76.68 3 2.38 3 4.38s-1.25 3.7-3 4.38V20h2.12a4.7 4.7 0 0 1 4.38-3c2 0 3.7 1.25 4.38 3H17v-5Z"/>
</svg>
