<svg style="width:24px;height:24px" viewBox="0 0 24 24" xmlns="http://www.w3.org/2000/svg">
  <path fill="#000000" d="M19 19H5V8h14m-3-7v2H8V1H6v2H5c-1.11 0-2 .89-2 2v14a2 2 0 0 0 2 2h14a2 2 0 0 0 2-2V5a2 2 0 0 0-2-2h-1V1"/>
  <path fill="#000000" d="M6.517 9.494h1.96v7.51h-1.1v-6.64h-.86v-.87zm2.6 8.95 3.28-9.84h1.01l-3.28 9.84h-1.01zm6.04-7.73v1.23h-1.08v-1.4c0-.7.373-1.05 1.12-1.05h1.03c.753 0 1.13.35 1.13 1.05v.76c0 .56-.14 1.107-.42 1.64l-1.62 3.18h2.08v.88h-3.31v-.84l1.84-3.46c.22-.42.33-.9.33-1.44v-.55c0-.14-.02-.233-.06-.28-.047-.047-.147-.07-.3-.07h-.38c-.147 0-.243.023-.29.07-.047.047-.07.14-.07.28z"/>
</svg>
