<svg style="width:24px;height:24px" viewBox="0 0 24 24" xmlns="http://www.w3.org/2000/svg">
  <path fill="#000000" d="M12 3a4 4 0 0 1 4 4c0 .73-.19 1.41-.54 2H18c.95 0 1.75.67 1.95 1.56C21.96 18.57 22 18.78 22 19a2 2 0 0 1-2 2H4a2 2 0 0 1-2-2c0-.22.04-.43 2.05-8.44C4.25 9.67 5.05 9 6 9h2.54A3.89 3.89 0 0 1 8 7a4 4 0 0 1 4-4m0 2a2 2 0 0 0-2 2 2 2 0 0 0 2 2 2 2 0 0 0 2-2 2 2 0 0 0-2-2m-6 6v8h2v-2.5l1 1V19h2v-2l-2-2 2-2v-2H9v1.5l-1 1V11H6m9 0c-1.11 0-2 .89-2 2v4c0 1.11.89 2 2 2h3v-5h-2v3h-1v-4h3v-2h-3z"/>
</svg>
