{
    "00": {
        "004": "Gyártó",
        "005": "Típuskód",
        "007": "Csatlakozás",
        "006": "Típusnév",
        "002": "Üdvözli Önt UBPM, a Windows, Linux és macOS alatt használható univerzális vérnyomás nyilvántartó!",
        "001": "Üdvözlés",
        "003": "Ezzel az alkalmazással a saját számítógépén nyilvántarthatja vérnyomás-adatait, anélkül, hogy cégekkel meg kellene osztania ezeket az interneten keresztül.<p>A mérések <a href='01-04.html'>kézzel is hozzáadhatóak</a>, <a href='02-01.html'>beolvashatóak fájlból</a>, vagy <a href='01-03.html'>kiolvashatóak</a> közvetlenül a vérnyomásmérő készülékről.<p>Jelenleg az alábbi vérnyomásmérő eszközök támogatottak:",
        "008": "További vérnyomásmérő készülékek hozzáadása <a href='03.html'>plugin bővítményként</a> lehetséges. Ha olyan vérnyomásmérőt használ, ami még nincsen támogatva, de ismeri annak protokollját és tud programozni, szívesen segítek a fejlesztésben. Ha már létrehozott ilyen plugint és szeretné mások számára is elérhetővé tenni, kérem lépjen kapcsolatba velem! <p>Ha nem tud programozni, de hasznosnak találja az alkalmazásomat, szívesen fogadom ha szeretne a további fejlesztéshez kisebb összegű támogatással hozzájárulni. Ezt például arra is tudom használni, hogy megvásároljak és be tudjak integrálni más típusú készülekeket is. Szívesen fogadok olyan, jelenleg még nem támogatott hibás készüléket is adományként, ami ugyan méréshez már nem használható, de a számítógép még fölismeri. Köszönöm szépen előre is!<p>A további oldalakon tudhat meg többet az alkalmazás funckióiról. <p>Interaktív <font color='blue'><u>hivatkozások</u></font> kék, <font color='green'>segítségek</font> zöld, <font color='red'>figyelmeztetések</font> piros és a <font color='brown'>beállítások</font> barna színűek…"
    },
    "01": {
        "001": "Felhasználói felület",
        "003": "Fő ablak",
        "005": "Eszközről beolvasás",
        "006": "Kézi bevitel",
        "007": "Adatok elemzése",
        "008": "Online frissítés",
        "002": "Az alkalmazás a fő ablakból, és számos kisebb dialógus-ablakból áll a különböző funkciók eléréséhez.<p>Válasszon ki egyet az alábbiak közül:<br>",
        "004": "Beállítások",
        "009": "Adatok eloszlása"
    },
    "01-01": {
        "001": "Fő ablak",
        "002": "Itt találja a vérnyomás-adatainak áttekintését. A felület a lehető legegyszerűbbre lett tervezve, hogy idősebb felhasználók is könnyen boldoguljanak vele.<p>Minden fontosabb funkció kényelmesen elérhető az Eszköztárról, csak a ritkábban használt tevékenységekhez kell a menüt használni.<p>A fő ablak 3 nézetre van osztva:",
        "003": "Grafikon",
        "004": "Táblázat",
        "005": "Statisztikai",
        "006": "Ha a párja adatait is szeretné kezelni, az az Eszköztáron a felhasználó szimbólummal (<font color='red'>A/B</font>) kapcsolható át. Az \"LCD\" kijelző (<font color='red'>C</font>) mutatja az éppen kiválasztott felhasználóhoz tartozó összes mérés számát.<p>A megjelenített idő-intervallum típusa az ezek után következő szimbólummal (<font color='red'>D</font>) váltható. Pl. kijeleztethető \"Heti\" (hétőtől-vasárnapig), de \"Utóbbi 7 nap\" (vagyis mondjuk szerdától-csütörtökig, ha épp csütörtök van) is.<p>A dátum-idő kiválasztóval (<font color='red'>E</font>) közvetlenül egy adott időpontra lehet ugrani.<p>Másfelől a kívánt intervallum az alul lévő gombokkal is kiválasztható, majd az egér görgőgomb vagy felül található lapozógombok (<font color='red'>F/G</font>) segítségével léptethető át előző, vagy következő időszakra. Ha ez a SHIFT gomb lenyomva tartása mellett történik, az a legelső/utolsó mérési adatra ugrást eredményezni."
    },
    "01-01-01": {
        "001": "Grafikon nézet",
        "002": "Ebben a nézetben az aktuális felhasználó adatai a kijelölt idő-intervallumban grafikonként kerülnek ábrázolásra:",
        "004": "Egy mérési adatra kattintás után az törölhető, elrejthető vagy szerkeszthető.",
        "005": "Jobb egérgombbal kattinásra egy menü jön elő, melyről a <a href='01-02-04.html'>Beállítások</a> alatt olvashat bővebben.",
        "003": "Az adatok normálisnak tekinthető határait piros (pulzus), zöld (diasztolés vérnyomás) és kék (szisztolés vérnyomás) sávok jelölik ki.<p>Egy mérési adat fölé tolva az egeret, megjelenik ott annak időpontja, számszerű értékei és egy opcionális megjegyzés."
    },
    "01-01-02": {
        "001": "Táblázatos nézet",
        "002": "Ebben a nézetben az aktuális felhasználó adatai a kijelölt idő-intervallumban táblázatként kerülnek ábrázolásra:",
        "003": "Egy adott oszlop fejlécére kattintva a sorrend változtatható meg aszerint, mint pl. pulzus alapján csökkenően.<p>Egy adat cellájára duplakattintva módosítható a tárolt érték.<p>Egy adatsor fölötti jobb egérkattintással az a mérés törölhető, elrejthető, vagy ismét megjeleníthető az ilyenkor fölugró menüben. Az elrejtett mérések nem kerülnek bele a grafikonos vagy statisztikai nézetekbe."
    },
    "01-01-03": {
        "002": "Ebben a nézetben az aktuális felhasználó adatai a kijelölt idő-intervallumban statisztikailag kerülnek ábrázolásra:",
        "001": "Statisztikai nézet",
        "003": "Az utolsó oszlopra kattintással az átlag és a medián érték ábrázolása között lehet váltani.<p>Egy körcikkelyre kattintás kiemeli azt a körből, és váltogatja a címkéjének szöveges ill. érték szerinti tartalmát.<p>Az alsó magyarázat sorra kattintással az összes címke kijelzése váltható át ugyanígy.<p>Jobb egérkattintással egy menü jelenik meg, amelyről többet olvasható a <a href='01-02-06.html'>Beállítások</a> alatt."
    },
    "01-02": {
        "001": "Beállítások",
        "002": "Minden beállítás központilag itt kezelhető. Egy adott opció fölé tolva az egeret, rövid leírás jeleníthető meg.<p>A beállítások az alábbi kategóriákra oszlanak:",
        "004": "Az alapértelmezett értékek ()-ben szerepelnek, a szabad-szöveges mezőket % jelzi.",
        "003": "Miután minden az igényeinek megfelelő beállításra került, a konfiguráció a \"Mentés\" gombbal tárolható, ami egyben ezt a dialógus-ablakot is bezárja. A \"Visszaállítás\" gombbal az alapértelmezett értékek állíthatóak vissza. Ha történt valamin változtatás, az ablak bezárásakor egy kérdés jelenik majd meg, hogy biztosan el akarja-e dobni a módosításokat.<p><h4>Beállításokat tartalmazó fájl fölépítése</h4>Minden beállítás a felhasználó saját kezdőkönyvtárában lévő \".config/LazyT\" mappában létrehozott \"ubpm.ini\" fájlban tárolódik. Ez szöveges formátumú, az alábbi struktúrának megfelelően:"
    },
    "01-02-01": {
        "001": "Adatbázis",
        "002": "Minden, adatbázissal kapcsolatos beállítás itt található:",
        "003": "Ugyanaz az adatbázis tárolja az összes mérési adatot mindkét felhasználó számára.<p>Ha az alapértelmezett útvonalat szeretné megváltoztatni, azt itt teheti meg.<p>Az adatbázis opcionálisan jelszóval is titkosítható. Ehhez ezt az opciót ki kell pipálni, és egy jelszót meg kell adni. A jelszó mező tartalmát a mellette lévő gombbal ellenőrizheti.<p class='warn'><b>Figyelem</b>: ne felejtse el a jelszót, mivel anélkül az adatbázis tartalma többé nem lesz elérhető!<p class='info'><b>Note</b>: az adatbázis titkosítására pl. akkor lehet szükség, ha az egy nyilvános felhőbe kerül feltöltésre.<p>Az adatbázisról automatikusan mentés készül megadott időközönként, ha ez az opció engedélyezve van. Ez történhet naponta, hetente vagy havonta és a beállított számú másolat kerül megtartásra. A régebbi mentések ennek megfelelően törlődnek."
    },
    "01-02-02": {
        "001": "Felhasználó",
        "002": "A felhasználókat érintő összes beállítás itt található:",
        "003": "A mért értékek osztályozásához célszerű beállítani a nemet és a korcsoportot itt. Ha szeretné, hogy a teljes neve megjelenjen egy nyomtatás során, akkor azt is beírhatja.<p>Az adatok alaposabb orvosi kiértékeléséhez további információkat is megadhat magáról: az \"Egyéb adatok\" kipipálása után beírhatja a születési dátumát, súlyát és magasságát.<p>Ha a párja adatait is rögzíteni szeretné, azt a 2. felhasználóhoz tartozó fülön teheti meg."
    },
    "01-02-03": {
        "001": "Eszköz",
        "002": "A mérést végző eszközök beállításai találhatóak itt:",
        "003": "Ha támogatott típusú vérnyomásmérőt használ, itt állíthatja be ahhoz, hogy közvetlenül arról be lehessen olvasni a méréseket. A kiválasztott eszköz információi jelennek meg itt, a gyártó weboldalára mutató link és a plugin fejlesztőjének email címe is.<p>Ha típuskód alapján nem biztos benne, hogy az Ön által használt eszközről van szó, a fényképezőgép ikont tartalmazó gombra kattintva kép alapján is összehasonlíthatja a sajátjával.<p>A mellette lévő gombbal pedig a készülék kézikönyve érhető el."
    },
    "01-02-04": {
        "001": "Grafikon",
        "002": "A grafikon nézettel kapcsolatos beállítások találhatóak itt:",
        "004": "A vérnyomás és a pulzus küszöb-értékei felhasználónként külön állíthatóak be.",
        "005": "A pulzushoz beállítható, hogy megjelenjen-e a Grafikon-nézetben, ill. nyomtatáskor egy külön oldalon.",
        "003": "Beállíthatja, hogy az X tengely dinamikusan igazodjon a megjelenített adatokhoz, vagy fixen 200-nál érjen véget. A dinamikus skála előnye, hogy a a kisebb különbségek jobban elkülönülnek egymástól.<p>A mért értékek elfogadható tartománya színes sávval jeleníthető meg, melyhez a küszöbértékek az alábbi füleken állíthatóak be.<p>Az egyes mérési adatokhoz beállítható méretű és színű szimbólumok megjelenítése is bekapcsolható (melyek segítségével könnyen elvégezhető módosítás, vagy számszerű értékek is megtekinthetőek).<p>Az is beállítható, hogy az egyes adatok vonalakkal össze legyenek-e kötve, és az milyen vastag vonal legyen, ha igen.<p class='info'><b>Megjegyzés</b>: mindez közvetlenül a fő ablakban jobb egérkattintással is elérhető."
    },
    "01-02-05": {
        "001": "Táblázat",
        "002": "A táblázatban ábrázolás beállításai találhatóak itt:",
        "003": "Ha egy mért érték átlép egy bizonyos küszöböt, pirossal kerül megjelenítésre a táblázatban és a nyomtatás során is.<p>Itt tudja ezeket a küszöbértékeket lefelé vagy fölfelé módosítani ha szükséges. Normál esetben általában erre nincs szükség."
    },
    "01-02-08": {
        "001": "E-mail",
        "002": "Minden e-maillel kapcsolatos beállítás itt végezhető el:",
        "003": "Kinyomatáson kívül akár közvetlenül e-mailben is elküldheti kezelőorvosának a méréseket.<p>Ehhez beállíthatja itt annak címét, és módosíthatja a küldendő levél tárgyát, ill. tartalmát ahogyan szeretné.<p>A sablonban szereplő $USER a beállított felhasználói nevére cserélődik küldés előtt..<p class='info'><b>Megjegyzés</b>: ha nem szeretné az emailben szerepeltetni a nevét, ezt ki is törölheti a sablonból.<p>A $CHART, $TABLE és $STATS változók helyett az azoknak megfelelő PDF-ek fognak a levélhez csatolmányként bekerülni. Ha például nem szeretne adattáblázatot küldeni, akkor a $TABLE változót távolítsa el a szövegből.<p class='warn'><b>Figyelem</b>: a 3 változóból legalább egynek maradnia kell!<p>A rendszerben beállított email kliens program kerül majd meghívásra a küldés során. Győzödjön meg róla, hogy a *.EML fájlok ahhoz vannak hozzárendelve. Ezen felül a levelezőprogramnak támogatnia kell az ún. \"X-Unsent\" flaget ahhoz, hogy EML fájl küldhető legyen vele."
    },
    "01-02-09": {
        "001": "Bővítmény",
        "002": "A bővítményekkel (plugin-ok) kapcsolatos beállítások találhatóak itt:",
        "003": "Ezek az adott plugin beállításai alatt is módosíthatóak, és itt inkább csak abban az esetben van szükség módosításra, ha az adott bővítmény valamilyen hiba miatt nem indítható. Minden opció magától értetődő, külön magyarázatot nem igényel."
    },
    "01-02-10": {
        "001": "Frissítés",
        "002": "A frissítéssel kapcsolatos beállítások végezhetőek el itt:",
        "003": "Az alkalmazás minden indítása során el tudja végezni az ellenőrzést, található-e belőle már frissebb verzió.<p>Ha csak arról szeretne értesítést kapni, amikor ez bekövetkezik, akkor kikapcsolhatja ezt az opciót. Ilyenkor azonban a frissítés keresése során előállt esetleges hibákról sem jelenik meg értesítés!<p class='info'><b>Megjegyzés</b>: a keresés kézzel is bármikor elindítható a Segítség menü Frissítés opciójával, és itt megjelenik majd a hibaüzenet, ha ennek során bármi probléma állna elő."
    },
    "01-03": {
        "001": "Beolvasás egy eszközről",
        "002": "A vérnyomásértékek közvetlenül egy vérnyomásmérőről is beolvashatóak, feltéve hogy az ezt lehetővé teszi és van hozzá bővítmény (plugin):",
        "004": "hozzon létre egy <b>\"/etc/udev/rules.d/60-ubpm.rules\"</b> fájlt root userrel, az alábbi példa-tartalomban kicserélve az idVendor és idProduct azonosítókat az Ön készülékének megfelelő értékekre!",
        "005": "Húzza ki, majd csatlakoztassa ismét a készüléket az USB portból!",
        "003": "A bővítmény kialakítás a fejlesztőjén múlik, így eszköztől függően más és más lehet a megjelenése. Az alábbi példa az Omron M400IT / M500IT plugint mutatja be.<p>Indítás után a vérnyomásmérő készülék jellemzői láthatóak. A beolvasás az \"Import\" gomb megnyomásával indítható, és a \"Cancel\"/\"Mégsem\" gombbal szakítható félbe. Az aktuális helyzet a folyamatjelző sávon követhető nyomon.<p>Ha szükség, a középső ikon gomb segítségével naplófájl hozható létre a folyamatról. Ez a TEMP mappában jön létre \"ubpm-import.log\" néven és az eszközzel folytatott teljes kommunikációt tartalmazza.<p>A beolvasás végén ez a dialógus-ablak magától bezárul, és egy rövid összegzés jelenik meg arról, hány mérés került beolvasásra, azok hogyan oszlanak meg a két felhasználó között, és mennyi már meglévő mérés lett kihagyva.<p class='info'><b>Megjegyzés</b>: Ha egy USB-s vérnyomásmérő készülék Linux alatt csak root jogosultsággal lenne elérhető, akkor az alábbi udev szabály létrehozásával segíthet ezen:"
    },
    "01-04": {
        "001": "Kézi bevitel",
        "002": "Ha egy vagy több mérést kézzel szeretne hozzáadni, azt itt teheti meg:",
        "003": "Sok mérési adat beviteléhez inkább <a href='02-01.html'>fájlból beolvasás</a> ajánlott.<p>Állítsa be a megfelelő időpontot, és írja be a vérnyomásértékeket! Ha a mérés során ritmus-zavar volt tapasztalható, az is megadható itt, és opcionálisan szövegesen megjegyzés is beírható.<p>A \"Rögzítés\" gomb megnyomása írja be az adatbázisba az értékeket, a \"Törlés\" gombbal pedig eltávolítható az onnan.<p>Egymás után több érték bevitele során praktikus kikapcsolni a nyugtázó üzenetet."
    },
    "01-05": {
        "001": "Adat-elemzés",
        "002": "Bizonyos értékekre szűréshez SQL lekérdezés is indítható:",
        "004": "Paraméter",
        "005": "Magyarázat",
        "006": "Szisztolés vérnyomás",
        "007": "Diasztolés vérnyomás",
        "008": "Pulzus-nyomás",
        "009": "Pulzus",
        "010": "Ritmus-zavar",
        "011": "Rejtett adat",
        "012": "Megjegyzés",
        "013": "Dátum",
        "014": "Időpont",
        "015": "A megfelelő oszlop-fejlécre kattintva sorba rendezhetőek az adatok, mint pl. pulzus szerint csökkenően.",
        "016": "Bemozdulás",
        "003": "Választhat előre megírt SQL lekérdezések közül, vagy beírhat egy sajátot, majd az ENTER billentyűvel végrehajtathatja azt.<p>Vagy eredmény-sorok vagy hibaüzenet jelenik meg, ha nem lehetséges a végrehajtás. Hibaüzenet esetén változtasson a kifejezésen, míg megfelelő nem lesz az eredmény.<p>Az alábbi jellemzők kérdezhetőek le:<br>"
    },
    "01-06": {
        "001": "Online frissítés",
        "002": "Amikor egy új verziót talál a frissítés-ellenőrzés, az alábbi információk jelennek meg arról:",
        "003": "A részletező-ablakban látható minden információ az új funkciókról vagy kijavított hibákról. Ez alapján eldöntheti, telepíti-e ezt, vagy figyelmen kívül hagyja.<p>A \"Download\"/\"Letöltés\" gomb lenyomására elindul a letöltés, és nyomon követheti annak folyamatát. Ez bármikor félbeszakítható, ha úgy lenne szükséges. Miután ez befejeződött, egy megerősítés után a még letöltési mappában lévő friss verzió elindítható. Ha rendben találja, a frissítést később bármilyen mappába áthúzhatja később.<p class='info'><b>Megjegyzés</b>: Semmilyen adat nem továbbítódik a szerver felé, csak a verzió-információt tartalmazó apró JSON fájl!"
    },
    "02": {
        "001": "Adatok kezelése",
        "002": "Mérési adatok <a href='02-01.html'>beimportálhatóak</a>, <a href='02-02.html'>kiexportálhatóak</a>, <a href='02-04.html'>migrálhatóak</a> de ki is <a href='02-03.html'>nyomtathatóak</a>."
    },
    "02-01": {
        "001": "Adat importálás",
        "002": "Mérési adatok többféleképpen is bekerülhetnek az alkalmazásba: <a href='01-04.html'>kézi bevitellel</a>, <a href='02-01-01.html'>CSV</a> fájlból, <a href='02-01-02.html'>XML</a> fájlból, <a href='02-01-03.html'>JSON</a> vagy <a href='02-01-04.html'>SQL</a> fájlból, vagy akár egy támogatott <a href='01-03.html'>eszközről közvetlenül</a>.<p><h4>Kézi adatrögzítés</h4>Kézi rögzítés hasznos pl. olyan esetre, ha egy orvosi rendelőben végzett mérés eredményét is szeretnénk bevinni a rendszerbe.<h4>Importálás fájlból</h4>Erre ritkán van szükség, főként az alkalmazás első használata során, amikor más adatforrásban rögzített értékeket szeretnénk bevinni, vagy egy új telepítés után korábban mentett állapotot visszatölteni.<p>Az import dialógus ablakban adja meg a beolvasni kívánt fájl elérési útvonalát. Alapértelmezetten ez a Dokumentumok mappa.<p>Ezután válassza ki, hogy CSV, XML, JSON vagy SQL fáljról van szó, és ekkor szűrés történik az ilyen típusra. Nyissa meg a beolvasásni kívánt fájlt!<p>A beolvasás végeztével az ablak magától bezárul, és egy rövid összegzés jelenik meg az importált adatok két felhasználó közti megoszlásáról, ill. hogy mennyi már meglévő mérés lett kihagyva.<h4>Importálás készülékről</h4>A normál működés során az adatokat közvetlenül a készülékről olvassuk be, és azok hozzáfűzésre kerülnek a már meglévőekhez. Így biztosított az adatok folyamatos tárolása bármeddig annak ellenére, hogy a vérnyomásmérő készülék saját memóriája csak erősen limitált számú mérést képes eltárolni felhasználónként."
    },
    "02-01-01": {
        "001": "Importálás CSV-ből",
        "002": "A CSV fájl struktúrája ilyen kell legyen:",
        "003": "Ha egy sor \"1\"-el kezdődik, az az első-, ha \"2\"-vel kezdődik, az a második felhasználóhoz (USER) tartozik.<p>A dátum (DATE) és az időpont (TIME) DD.MM.YYYY ill. HH.MM.SS formátumban kell legyen.<p>Ezután következnek a szisztolés (SYS), a diasztolés (DIA) vérnyomási adatok, majd a pulzus (BPM).<p>Végezetül a ritmus-zavar(IHB), majd a rejtett adat (INV) jelzései és egy opcionális megjegyzés (MSG) jön."
    },
    "02-01-02": {
        "001": "Importálás XML-ből",
        "002": "Az XML fájl struktúrája a következő kell legyen:",
        "003": "Az első felhasználó adatai \"U1\" szekcióban, a második felhasználóé \"U2\"-ben legyenek.<p>Minden mérési sor egy \"record\"-ban. Ez tartalmazza először a dátumot DD.MM.YYYY és az időt HH.MM.SS formátumban.<p>Ezután következnek a szisztolés (sys) és diasztolés (dia) vérnyomási adatok, ill. a pulzus (bpm).<p>Végül a ritmus-zavar (ihb) és a rejtett adat (inv) jelzése következik és egy opcionális megjegyzés (msg)."
    },
    "02-01-03": {
        "001": "Importálás JSON-ból",
        "002": "A JSON fájl struktúrája a következő kell legyen:",
        "003": "Az első felhasználó adatai \"U1\" szekcióban, a második felhasználóé \"U2\"-ben legyenek.<p>Minden mérési sor egy \"{}\"-ban. Ez tartalmazza először a dátumot DD.MM.YYYY és az időt HH.MM.SS formátumban.<p>Ezután következnek a szisztolés (sys) és diasztolés (dia) vérnyomási adatok, ill. a pulzus (bpm).<p>Végül a ritmus-zavar (ihb) és a rejtett adat (inv) jelzése következik és egy opcionális megjegyzés (msg)."
    },
    "02-01-04": {
        "001": "Importálás SQL-ből",
        "002": "Az SQL fájl stuktúrája a következő kell legyen:",
        "003": "Az első felhasználó adatai \"U1\" táblában, a második felhasználóé \"U2\"-ben lévő rekordok legyenek.<p>Ez tartalmazza a dátumot DD.MM.YYYY és az időt HH.MM.SS formátumban, a szisztolés és diasztolés vérnyomási adatokat, ill. a pulzust, a ritmus-zavar és a rejtett adat jelzését ill. egy opcionális megjegyzést."
    },
    "02-02": {
        "001": "Adatok exportálása",
        "002": "A mérési adatok kiexportálhatóak <a href='02-02-01.html'>CSV</a>, <a href='02-02-02.html'>XML</a>, <a href='02-02-03.html'>JSON</a>, <a href='02-02-04.html'>SQL</a> és <a href='02-02-05.html'>PDF</a> formában is mentési ill. megosztási célból. A célszerű formátum a felhasználástól függ.<h4>Exportálás fájlba</h4>Válassza ki az útvonalat, hová szeretné menteni a fájlt. Alapértelmezetten ez a Dokumentumok mappa. A típusnak megfelelő összes egyéb fájl látható ilyenkor.<p>Ezután adja meg a kívánt fájlnevet, vagy fogadja el az alapértelmezettet.<p>A mérési adatok a kívánt formátumban kerülnek mentésre."
    },
    "02-02-01": {
        "001": "CSV export",
        "002": "Egy CSV fájl többféle célra is alkalmas, például:",
        "003": "további automatikus feldolgozás más alkalmazással vagy script-tel",
        "004": "kézi feldolgozás táblázatkezelő programban"
    },
    "02-02-02": {
        "001": "XML export",
        "003": "további automatikus feldolgozás más alkalmazással vagy script-tel",
        "004": "interaktív megjelenítés egy web-böngésző programban",
        "002": "Egy XML fájl többféle célra is alkalmas, például:"
    },
    "02-02-03": {
        "002": "Egy JSON fájl többféle célra is alkalmas, például:",
        "003": "további automatikus feldolgozás más alkalmazással vagy script-tel",
        "004": "JavaScript-beli felhasználáshoz különösen alkalmas",
        "001": "JSON export"
    },
    "02-02-04": {
        "001": "SQL export",
        "003": "közvetlen mentés/visszaállítás az UBPM programban",
        "004": "külső feldolgozás más adatbázis-kezelő alkalmazásban",
        "002": "Egy SQL fájl többféle célra is alkalmas, például:"
    },
    "02-02-05": {
        "002": "Egy PDF fájl többféle célra is alkalmas, például:",
        "003": "Bizonyos megjelenítési nézetek arhíválása",
        "001": "PDF export"
    },
    "02-03": {
        "001": "Adatok nyomtatása",
        "002": "Ha szeretné mérési adatait elvinni a kezelőorvos számára, természetesen ki is <a href='02-03-02.html'>nyomtathatja</a> ezeket.<p>Papírtakarékossági célból javasolt először az <a href='02-03-01.html'>előnézetet</a> megtekinteni.<p>Az előnézet vagy a nyomtatás mindig megfelel az aktuálisan kiválasztott nézetnek. Ezért először mindig válassza ki a kívánt felhasználót és időintervallumot a fő ablakban, mielőtt ezt a funkciót használná.<p>A <a href='01-02-04.html'>Beállítások</a> alatt megadhatja, hogy a pulzusadatok a vérnyomással azonos, vagy külön oldalon szerepeljenek."
    },
    "02-04": {
        "001": "Adat migrálás",
        "002": "A gyártó saját szoftverében már bennlévő adatok migrálása is lehetséges:",
        "003": "Először exportálja a korábban használt programból az adatokat CSV formátumban. Ha esetleg csak XLS exportra van lehetőség, akkor valamilyen táblázatkezelő programmal, pl. Excellel alakítsa azt át CSV-re.<p>Ezután töltse be ezt a fájlt, és válassza ki a megfelelő programot a lehetséges források listájából. Jelenleg a következő programok támogatottak:",
        "005": "Paraméter",
        "006": "Magyarázat",
        "007": "Megjegyzés",
        "008": "Nap, 1...31",
        "009": "Nap, 01...31",
        "010": "Nap röviden, pl. HÉTF",
        "011": "Nap hosszan, pl. Hétfő",
        "012": "Hónap, 1...12",
        "013": "Hónap, 01...12",
        "014": "Hónapnév röviden, pl. Jan.",
        "015": "Hónapnév hosszan, pl. Január",
        "016": "Év 00...99",
        "017": "Év xxxx",
        "018": "Óra, 0...23 / 1...12",
        "019": "Óra, 00...23 / 01...12",
        "020": "Óra, 0...23",
        "021": "Óra, 0...23",
        "022": "Perc, 0...59",
        "023": "Perc, 00...59",
        "024": "Másodperc, 0...59",
        "025": "Másodperc, 0...59",
        "027": "Ezredmásodperc, 000...999",
        "028": "AM/PM kisbetűvel",
        "029": "AM/PM nagybetűvel",
        "030": "Időzóna, pl. CEST",
        "004": "Ha az Ön által használt program még nincs támogatva, a paramétereket és pozíciókat kézzel adhatja meg. Ehhez nyissa meg a CSV fájlt egy szerkesztő programban, ahol megnézheti a paraméterek és pozíciók értékeit. Válassza ki a \"Custom\"/\"Egyéni\" formátumot ehhez, ahol mentésre kerülnek majd a beállított értékek. Opcionálisan el is küldheti részemre ezt a CSV/XLS fájlt, hogy a program egy újabb verziójában már támogatva legyen.<p>Ha a teszt migrálás már nem ad hibaüzenetet és a megjelenített minta-adatok megfelelőnek tűnnek, elindítható a migrálás.<p><p><p class='info'><b>Megjegyzés</b>: Ha a fájl neve tartalmazza a gyártó nevét, a megfelelő forrás-formátum automatikusan kiválasztásra kerül. Továbbá ha egy \"2\" szerepel a névben, a második felhasználó választódik ki..<p><h4>A dátum is idő paraméterek magyarázata</h4>",
        "026": "Ezredmásodperc, 0...999",
        "031": "megköveteli a nyelv mezőt, ISO 639-1-nek megfelelően, mint pl. \"hu\""
    },
    "02-03-01": {
        "001": "Előnézet",
        "003": "Ha megfelelő az eredmény, a jobb felső sarokban lévő nyomtató ikonnal közvetlenül el is indítható a nyomtatás.",
        "002": "Az előnézetben győződhet meg arról, hogy a kiválasztott formátum valóban a céljának megfelelő eredményt ad-e majd nyomtatásban."
    },
    "02-03-02": {
        "001": "Nyomtatás",
        "002": "Válassza ki a kívánt nyomtatót és annak beállításait, ha szükséges.<p>Egy rövid feldolgozási idő után elindul a nyomtatás, és kézbe veheti a végeredményt."
    },
    "03": {
        "001": "Eszköz bővítmények",
        "002": "Egy vérnyomásmérő készülékről való közvetlen adat-kiolvasás bővítmény (plugin) segítségével lehetséges. Ahhoz, hogy egy ilyen bővítményt létre lehessen hozni, először ismerni kell az eszköz által használt adatátviteli protokollt.<p>Ez így deríthető föl:",
        "003": "telepítse a gyártó saját alkalmazását, és a forgalom analizáló Wireshark programot (https://wireshark.org)",
        "005": "vizsgálja meg a számítógép és a vérnyomásmérő kommunikációjából kigyűjtött adatforgalmat Wireshark-ban",
        "006": "azonosítsa be abban a parancsokat és az azoka adott válaszokat",
        "007": "azonosítsa be a mérési adatokat a válaszokban",
        "009": "készítsen egy plugint az így felderített adatok alapján",
        "004": "olvastassa be a mért értékeket a gyártói programmal, és közben rögzítse a kommunikációs adatforgalmat Wireshark-kal (ha USB-s eszköz) vagy az Android fejlesztői eszközökkel (ha az Bluetooth-os)",
        "008": "modellezze a kommunikációt hidapitester-ben (https://github.com/todbot/hidapitester) USB-HID eszköz esetén, vagy bettercap-ban (https://www.bettercap.org) Bluetooth eszköz esetén",
        "010": "Jó, ez kicsit leegyszerűsített így, a gyakorlatban sajnos többnyire nem ilyen simán megy ;-)<p>Nekem is 1-2 napra volt szükségem a saját M500IT típusomhoz: legyen türelmes, és ne adja föl egykönnyen! <p><h4>Pár további tipp:</h4><p>Olvassa le az értékeket a vérnyomásmérője kijelzőjéről, és konvertálja át hexadecimális számokká, mert azokat így fogja megtalálni az adatfolyamban.<p>Néha előfordul, hogy hozzá kell adni valamennyit (pl. 25-öt a szisztolés értékhez) hogy a megfelelő eredményt kapjuk... Az is előfordulhato, hogy az értékek több byte-on vagy több biten is tárolva vannak!<p><h4>USB-HID esetén az alábbi hasznos hidapitester parancsokkal érdemes kezdeni:</h4>",
        "011": "Az értékeket persze az aktuális eszköznek megfelelőre kell módosítani: a példában szereplő 0590 az OMRON gyártói azonosítója éa a 0090 az M400IT/M500IT eszköz azonosítója. 9 byte kerül kiküldésre a vérnyomásmérő felé, és 25 byte érkezik kiolvasás során válaszként.<p><h4>Bluetooh eszköznél az alábbi hasznos bettercap parancsokkal érdemes kezdeni:</h4>",
        "012": "Az adatokat persze a saját eszköznek megfelelőre kell cserélni: a példában szereplő 00:DE:AD:BE:EF:00 helyére az eszköz MAC címe kerül, DB5B55E0AEE711E1965E0002A5D5C51B a szolgáltatás UUID-ja és 08000000100018 a kiírandó érték.<p>Kérdés esetén szívesen segítek, de olyan vérnyomásmérőhöz nem tudok plugint készíteni, mely nincs a birtokomban!<p>Azonban ha a kommunikáció hidapitester vagy bettercap alkalmazásokban működik és az adatok megtalálhatóak a válaszokban, akkor kipróbálhatom látatlanban is úgy, hogy majd Ön teszteli le.<p class='info'><b>Megjegyzés</b>: Egy USB eszköz akár meg is osztható az interneten keresztül usbip segítségével, hogy hozzá tudjak férni."
    },
    "01-02-06": {
        "001": "Statisztika",
        "002": "Minden statisztikai beállítás itt található:",
        "003": "Ha átlag helyett medián-érték kijelzésére van szükség, az itt kapcsolható át.<p>Az is itt állítható be, hogy az alsó magyarázat-sáv értékeket vagy megnevezéseket tartalmazzon.<p class='info'><b>Megjegyzés</b>: ezek a beállítások közvetlenül a fő ablakban is módosíthatóak jobb egérkattintással.</p><h4>Átlagérték</h4>Az átlagérték kiszámításához a mérések összegét osztjuk el a mérések számával. Ebből adódóan a kiugró értékek könnyen el tudják torzítani.<p>Példa: 5 mérést végeztünk 130, 120, 190, 120 és 120 értékekkel.<p>Ezek összege 680, mely 5-el osztva 136-os átlagot eredményez. Ez az érték azonban sosem volt mérhető, és csak a 190-es kiugró érték húzta föl ennyire.<h4>Medián érték</h4>A medián az az érték, ami középen található ha az adatokat sorba rendezzük (vagyis a mérések egyik fele ennél több, a másik felé ennél magasabb értéket mutat). Előnye, hogy nem torzítják el a kiugró értékek.<p>Példa: ismét az előbbi 5 mérés 130, 120, 190, 120 és 120 értékekkel.<p>Ez emelkedő sorrenbe rendezve 120, 120, 120, 130, 190, ahol középen 120 van, ez a medián érték. Ez valóban egy gyakran mért, tényleg előforduló érték."
    },
    "01-07": {
        "002": "Ha szeretné anyagilag támogatni a projektet, azt itt teheti meg:",
        "003": "A program fejlesztése, karbantartása sok időt és energiát vesz igénybe. Ha ennek elismeréseként szeretne támogatással hozzájárulni, bármekkora összeggel megteheti.<p>Többféle adakozási mód is létezik, válassza ki az Ön számára legmegfelelőbbet, és kövesse az utasításokat.<p>Adomány közvetlenül a számítógépéről is indítható (a gombokra kattintással) vagy a mobiltelefonjáról (a QR-kód beszkennelésével).<p>Köszönöm!<p class='info'><b>Megjegyzés</b>: támogatás nélkül is minden funkció korlátozás nélkül használható, nincsenek sem hirdetések, sem adat-gyűjtés.",
        "001": "Adakozás"
    },
    "01-08": {
        "001": "Adatok eloszlása",
        "002": "Itt megjeleníthető a rekordok eloszlása az előre meghatározott területekre:",
        "003": "Ez a megjelenítés mindig a jelenleg beállított pácienst és időszakot mutatja. Ha a legtöbb rekord a zöld zónában van, akkor a vérnyomás és a szívverés optimálisan be van állítva.<p class='info'><b>Megjegyzés</b>: A szívverés tartományai a nemtől és kortól függnek, ezért ezeket helyesen kell beállítani a beállításokban."
    }
}
